JAVASCRIPT:34597
JAVA:99120
C#:169598
PHP:17856
ANDROID:60258
JQUERY:32341
PYTHON:62275
HTML:18350
C++:36202
IOS:10782
MYSQL:13234
SQL:28810
CSS:19471
ASP.NET:13673
OBJECTIVE-C:14520
RUBY-ON-RAILS:6588
.NET:58362
IPHONE:8955
C:19410
ARRAYS:6699
SQL-SERVER:16655
ANGULARJS:14679
RUBY:11700
JSON:7378
AJAX:3952
REGEX:10415
XML:6970
ASP.NET-MVC:35741
R:14668
UBUNTU:109
HASKELL:947
UNIX:856
LINUX:1762
OPENCV:783
WPF:2381
POWERSHELL:2029
DJANGO:5741
NODE.JS:1526
DATABASE:1593
XCODE:585
VB.NET:1525
ECLIPSE:1669
STRING:935
WINDOWS:1215
WORDPRESS:787
MATLAB:2407
PERL:4613
WEB-SERVICES:752
SCALA:1832
DELPHI:5547
MAVEN:2230
BASH:10798
SWING:13475
REST:3881
HTTP:6687
